…
### 分组 {#subsec-group-by}

分组切片，取每组第一个和最后一个值


```r
Loblolly %>% 
  dplyr::group_by(Seed) %>% 
  dplyr::arrange(height, age, Seed) %>% 
  dplyr::slice(1, dplyr::n())
```

```
## # A tibble: 28 x 3
## # Groups:   Seed [14]
##    height   age Seed 
##     <dbl> <dbl> <ord>
##  1   3.93     3 329  
##  2  56.4     25 329  
##  3   4.12     3 327  
##  4  56.8     25 327  
##  5   4.38     3 325  
##  6  58.5     25 325  
##  7   3.91     3 307  
##  8  59.1     25 307  
##  9   3.46     3 331  
## 10  59.5     25 331  
## # ... with 18 more rows
```
…
