第 9 章 净土化操作 | 现代应用统计与 R 语言
…
9.1 常用操作

dplyr 由 Hadley Wickham 主要由开发和维护，是Rstudio公司开源的用于数据处理的一大利器，该包号称“数据操作的语法”，与 ggplot2 对应，也就是说数据处理那一套已经建立完整的和SQL一样的功能。它们都遵循同样的处理逻辑，只不过一个用SQL写，一个用R语言写，处理效率差不多，R语言写的 SQL 会被翻译为 SQL 语句，再传至数据库查询，当然它也支持内存内的数据操作。目前 dplyr 以 dbplyr 为后端支持的数据库有：MySQL、PostgreSQL，SQLite等，完整的支持列表请看 这里，连接特定数据库，都是基于 DBI，DBI 即 Database Interface， 是使用C/C++开发的底层数据库接口，是一个统一的关系型数据库连接框架，需要根据不同的具体的数据库进行实例化，才可使用。

dplyr 常用的函数是 7 个： arrange 排序 filter 过滤行 select 选择列 mutate 变换 summarise 汇总 group_by 分组 distinct 去重

以 ggplot2 包自带的钻石数据集 diamonds 为例介绍

9.1.1 查看

除了直接打印数据集的前几行，tibble 包还提供 glimpse 函数查看数据集，而 Base R 默认查看方式是调用 str 函数

diamonds

## # A tibble: 53,940 × 10
##    carat cut       color clarity depth table price     x     y     z
##    <dbl> <ord>     <ord> <ord>   <dbl> <dbl> <int> <dbl> <dbl> <dbl>
##  1  0.23 Ideal     E     SI2      61.5    55   326  3.95  3.98  2.43
##  2  0.21 Premium   E     SI1      59.8    61   326  3.89  3.84  2.31
##  3  0.23 Good      E     VS1      56.9    65   327  4.05  4.07  2.31
##  4  0.29 Premium   I     VS2      62.4    58   334  4.2   4.23  2.63
##  5  0.31 Good      J     SI2      63.3    58   335  4.34  4.35  2.75
##  6  0.24 Very Good J     VVS2     62.8    57   336  3.94  3.96  2.48
##  7  0.24 Very Good I     VVS1     62.3    57   336  3.95  3.98  2.47
##  8  0.26 Very Good H     SI1      61.9    55   337  4.07  4.11  2.53
##  9  0.22 Fair      E     VS2      65.1    61   337  3.87  3.78  2.49
## 10  0.23 Very Good H     VS1      59.4    61   338  4     4.05  2.39
## # … with 53,930 more rows
…
