…
```r
library(tibble)
library(magrittr)

mtcars <- tibble(mtcars)

mtcars %>% 
  print(n = 16, width = 69)
```

```
## # A tibble: 32 x 11
##      mpg   cyl  disp    hp  drat    wt  qsec    vs    am  gear  carb
##    <dbl> <dbl> <dbl> <dbl> <dbl> <dbl> <dbl> <dbl> <dbl> <dbl> <dbl>
##  1  21       6  160    110  3.9   2.62  16.5     0     1     4     4
##  2  21       6  160    110  3.9   2.88  17.0     0     1     4     4
##  3  22.8     4  108     93  3.85  2.32  18.6     1     1     4     1
##  4  21.4     6  258    110  3.08  3.22  19.4     1     0     3     1
##  5  18.7     8  360    175  3.15  3.44  17.0     0     0     3     2
##  6  18.1     6  225    105  2.76  3.46  20.2     1     0     3     1
##  7  14.3     8  360    245  3.21  3.57  15.8     0     0     3     4
##  8  24.4     4  147.    62  3.69  3.19  20       1     0     4     2
##  9  22.8     4  141.    95  3.92  3.15  22.9     1     0     4     2
## 10  19.2     6  168.   123  3.92  3.44  18.3     1     0     4     4
## 11  17.8     6  168.   123  3.92  3.44  18.9     1     0     4     4
## 12  16.4     8  276.   180  3.07  4.07  17.4     0     0     3     3
## 13  17.3     8  276.   180  3.07  3.73  17.6     0     0     3     3
## 14  15.2     8  276.   180  3.07  3.78  18       0     0     3     3
## 15  10.4     8  472    205  2.93  5.25  18.0     0     0     3     4
## 16  10.4     8  460    215  3     5.42  17.8     0     0     3     4
## # ... with 16 more rows
```


```r
mtcars %>% 
  print(., n = nrow(.)/4)
```

```
## # A tibble: 32 x 11
##     mpg   cyl  disp    hp  drat    wt  qsec    vs    am  gear  carb
##   <dbl> <dbl> <dbl> <dbl> <dbl> <dbl> <dbl> <dbl> <dbl> <dbl> <dbl>
## 1  21       6  160    110  3.9   2.62  16.5     0     1     4     4
## 2  21       6  160    110  3.9   2.88  17.0     0     1     4     4
## 3  22.8     4  108     93  3.85  2.32  18.6     1     1     4     1
## 4  21.4     6  258    110  3.08  3.22  19.4     1     0     3     1
## 5  18.7     8  360    175  3.15  3.44  17.0     0     0     3     2
## 6  18.1     6  225    105  2.76  3.46  20.2     1     0     3     1
## 7  14.3     8  360    245  3.21  3.57  15.8     0     0     3     4
## 8  24.4     4  147.    62  3.69  3.19  20       1     0     4     2
## # ... with 24 more rows
```
…
